*** Darwin 1x1 ***
Turn = 0.
  0
0 h

Turn = 1.
  0
0 h

*** Darwin 10x10 ***
Turn = 0.
  0123456789
0 hhhhh.....
1 fffff.....
2 ..........
3 ..........
4 ..........
5 ..........
6 ..........
7 ..........
8 ..........
9 ..........

Turn = 200.
  0123456789
0 hhhhh.....
1 fffff.....
2 ..........
3 ..........
4 ..........
5 ..........
6 ..........
7 ..........
8 ..........
9 ..........

*** Darwin 1x3 ***
Turn = 0.
  012
0 th.

Turn = 1.
  012
0 tt.

*** Darwin 1x3 ***
Turn = 0.
  012
0 .ht

Turn = 1.
  012
0 h.t

*** Darwin 3x1 ***
Turn = 0.
  0
0 .
1 h
2 t

Turn = 1.
  0
0 h
1 .
2 t

*** Darwin 10x10 ***
Turn = 0.
  0123456789
0 f.........
1 .h......t.
2 ......t...
3 ....tt....
4 .......r..
5 .....r....
6 ..........
7 ..........
8 ..........
9 ....r.....

Turn = 5.
  0123456789
0 fh........
1 ........t.
2 ......t...
3 ....tt....
4 ..........
5 r.........
6 .........r
7 ..........
8 ..........
9 r.........

Turn = 10.
  0123456789
0 fh........
1 r.......t.
2 ......t...
3 ....tt....
4 ..........
5 ..........
6 r.........
7 ..........
8 ..........
9 ........r.

*** Darwin 10x10 ***
Turn = 0.
  0123456789
0 rrrrrrrrrr
1 ..........
2 ..........
3 ..........
4 hhhhhhhhhh
5 hhhhhhhhhh
6 ..........
7 ..........
8 ..........
9 ffffffffff

Turn = 50.
  0123456789
0 .r....rrr.
1 .......r..
2 r.rr.r...r
3 rrr.r.....
4 rr....r..r
5 rr..rr....
6 rr..r..rr.
7 rr.r....rr
8 r..r...r..
9 .rr....rrr

Turn = 100.
  0123456789
0 rrr.......
1 r..rrr.rrr
2 rr..rrrr..
3 .r....r.r.
4 r.r...r...
5 .r.......r
6 ...rrrr..r
7 ...r.rr..r
8 r.r.r.r..r
9 ..r....r..

*** Darwin 10x10 ***
Turn = 0.
  0123456789
0 rrrrr.....
1 rrrrr.....
2 rrrrr.....
3 rrrrr.....
4 rrrrr.....
5 rrrrr.....
6 rrrrr....t
7 rrrrr....t
8 rrrrr....t
9 rrrrr....t

Turn = 10.
  0123456789
0 rr.....rrr
1 rrr..r....
2 rrr....rrr
3 r.r.r...r.
4 rrrr...rrr
5 r.rr...r.r
6 rrr.r...tt
7 rrr......t
8 rrrr..r.tt
9 rrrr...r.t

Turn = 20.
  0123456789
0 .rr.rrrr.r
1 rr...r....
2 r..rr.r.r.
3 r..r.rrrr.
4 ....r.rr.r
5 .rr...rrrr
6 rr....rrrr
7 rr..r...rr
8 rr..rr..rr
9 rrrr....rr

*** Darwin 10x10 ***
Turn = 0.
  0123456789
0 rrrrr.....
1 rrrrr.....
2 rrrrr.....
3 rrrrr.....
4 rrrrr.....
5 rrrrr.....
6 rrrrt....t
7 rrrrt....t
8 rrrrt....t
9 rrrrt....t

Turn = 10.
  0123456789
0 r.rr...r.r
1 rrr....r.r
2 r.r.....rr
3 rrr..r.rrr
4 rrrr.r..r.
5 rr.r.r.r..
6 rrr......t
7 rrrrr....t
8 rrrrr....t
9 rrrtt....t

Turn = 20.
  0123456789
0 .rrr.r..r.
1 .r.rrrrr.r
2 rr..r.rr.r
3 rr.rr.rr.r
4 .r.....rrr
5 rr......rr
6 rrr.r.r.rr
7 rr....rrrr
8 r......r.t
9 r...r..rrt

*** Darwin 10x10 ***
Turn = 0.
  0123456789
0 ..........
1 ..........
2 ..........
3 ..........
4 .....t....
5 ....trt...
6 .....t....
7 ..........
8 ..........
9 ..........

Turn = 100.
  0123456789
0 ..........
1 ........r.
2 .........r
3 ..........
4 ..........
5 ....t.t...
6 .....t....
7 ..........
8 ..........
9 ..........

Turn = 200.
  0123456789
0 ..........
1 ..........
2 ..........
3 ..........
4 .........r
5 ....t.t...
6 ....t.....
7 ..........
8 ..........
9 .........r
